<?xml version="1.0" encoding="utf-8"?>
<!-- Generator: Adobe Illustrator 23.1.1, SVG Export Plug-In . SVG Version: 6.00 Build 0)  -->
<svg version="1.1" id="Layer_1" xmlns="http://www.w3.org/2000/svg" xmlns:xlink="http://www.w3.org/1999/xlink" x="0px" y="0px"
	 viewBox="0 0 80.9 104.6" style="enable-background:new 0 0 80.9 104.6;" xml:space="preserve">
<style type="text/css">
	.st0{fill:#86E736;}
</style>
<title>Artboard 1</title>
<path class="st0" d="M36.4,16.2c0.7,0,1.3-0.1,2-0.1c2,0,4.1,0.1,6.1,0.1c0.5,0.1,1,0.1,1.4,0.2c0.8,0.2,1.7,0.3,2.5,0.5
	c0.6,0.1,1.2,0.3,1.8,0.4c0.1,0,0.2,0.1,0.3,0.1c0.5,0.2,1.1,0.3,1.6,0.5c0.7,0.2,1.3,0.5,2,0.7c0.5,0.2,1.1,0.4,1.6,0.7
	c0.8,0.4,1.7,0.8,2.5,1.3c0.8,0.5,1.6,1,2.4,1.5c0.5,0.3,0.9,0.6,1.4,0.8c0.2,0.2,0.5,0.4,0.7,0.6c0.5,0.4,1,0.8,1.5,1.2
	c0.2,0.2,0.4,0.4,0.7,0.6c0.4,0.4,0.8,0.8,1.3,1.1c0.3,0.3,0.5,0.6,0.8,0.9c0.3,0.4,0.7,0.7,1,1.1c0.3,0.3,0.6,0.6,0.8,0.9
	c0.4,0.5,0.8,1,1.2,1.5c0.1,0.2,0.3,0.4,0.4,0.5c0.9,1.4,1.7,2.7,2.6,4.1c0.6,1.2,1.2,2.5,1.7,3.7c0,0.1,0.1,0.1,0.1,0.2l0,0
	c0.2,0.7,0.5,1.3,0.7,2c0.2,0.7,0.4,1.4,0.7,2.1c0.1,0.6,0.3,1.2,0.4,1.8c0.1,0.7,0.3,1.3,0.4,2c0.1,0.5,0.1,1,0.2,1.4
	c0,0.2,0.1,0.4,0.1,0.5c0,0,0,0,0,0c0,0.4,0.1,0.8,0.1,1.2c0,0.9,0,1.8,0,2.8c0,0.3,0,0.5,0,0.8c-0.1,0.9-0.1,1.7-0.2,2.6
	c-0.1,0.9-0.2,1.8-0.4,2.7c-0.1,0.5-0.2,1-0.3,1.6c-0.4,1.4-0.8,2.8-1.2,4.3c-0.3,0.7-0.5,1.4-0.8,2.1c-0.6,1.2-1.2,2.5-1.9,3.7
	c-0.2,0.3-0.4,0.6-0.5,0.9c-0.3,0.4-0.5,0.8-0.8,1.2c-1,1.3-2,2.6-3,4c-0.1,0.1-0.2,0.2-0.3,0.3c-0.5,0.5-1,1-1.4,1.5
	c-0.2,0.2-0.4,0.4-0.5,0.5c-0.6,0.5-1.2,1.1-1.7,1.6c-0.1,0.1-0.2,0.2-0.4,0.3c-1.3,0.9-2.6,1.9-3.8,2.8c-0.4,0.2-0.7,0.5-1.1,0.7
	c-0.3,0.2-0.7,0.4-1,0.6c-0.7,0.4-1.4,0.7-2.1,1.1c-0.3,0.1-0.6,0.3-0.9,0.4c-0.3,0.1-0.6,0.3-0.9,0.4c-0.6,0.2-1.2,0.4-1.8,0.7
	c0,0-0.1,0-0.1,0c-0.1,0-0.2,0.1-0.3,0.1c0,0-0.1,0-0.1,0.1c-0.1,0-0.2,0.1-0.3,0.1c0,0-0.1,0-0.1,0c-0.1,0-0.1,0-0.2,0
	c-0.4,0.1-0.7,0.2-1.1,0.3l0,0l0,0c-0.1,0-0.2,0.1-0.3,0.1c-0.6,0.1-1.2,0.3-1.8,0.4c-0.6,0.1-1.1,0.2-1.7,0.3
	c-0.6,0.1-1.2,0.2-1.7,0.3c-0.7,0.1-1.4,0.1-2.1,0.2c-1.3,0-2.6,0-3.8,0c-0.1,0-0.2,0-0.3,0c-0.6,0-1.2-0.1-1.7-0.1
	c-0.7-0.1-1.5-0.2-2.2-0.3c-0.7-0.1-1.3-0.3-2-0.4c-0.2,0-0.4-0.1-0.6-0.1c-0.4-0.1-0.9-0.3-1.3-0.4c-0.6-0.2-1.2-0.4-1.8-0.6
	c-0.7-0.2-1.4-0.5-2.1-0.7c-0.1,0-0.2-0.1-0.3-0.1c-0.6-0.3-1.2-0.5-1.7-0.8c-0.6-0.3-1.1-0.6-1.7-0.9c-0.2-0.1-0.4-0.2-0.6-0.3
	c-0.5-0.3-1-0.6-1.5-0.9c-2-1.6-4.1-3.3-6.1-4.9c0,0-0.1-0.1-0.1-0.1c-0.3-0.4-0.7-0.7-1-1.1c-1.3-1.6-2.6-3.3-3.9-4.9
	c-0.3-0.5-0.6-1-0.9-1.4c-0.1-0.2-0.3-0.5-0.4-0.7c-0.4-0.7-0.7-1.3-1.1-2c-0.2-0.5-0.4-1-0.7-1.5c0-0.1-0.1-0.3-0.1-0.4
	c-0.2-0.7-0.5-1.3-0.7-2c-0.4-1.2-0.7-2.4-1.1-3.6c0-0.1,0-0.2,0-0.3c-0.2-0.8-0.3-1.7-0.5-2.5C4,58.2,4,57.8,3.9,57.4
	c-0.1-0.8-0.2-1.6-0.2-2.4c0-0.7,0-1.3,0-2c0-0.7,0-1.3,0-2c0-0.7,0.1-1.3,0.1-2c0.1-0.6,0.2-1.2,0.3-1.9c0.1-0.8,0.3-1.6,0.4-2.4
	c0.4-1.2,0.7-2.5,1.1-3.7C5.8,40.6,6,40,6.2,39.4c0.4-1.5,1.3-2.8,2-4.2c0.1-0.3,0.3-0.5,0.4-0.8C8.8,34,9,33.7,9.2,33.3
	c1-1.4,2-2.7,3-4.1c0.2-0.2,0.3-0.4,0.5-0.6c0.4-0.4,0.8-0.9,1.2-1.3c0.3-0.3,0.5-0.5,0.8-0.8c0.5-0.4,0.9-0.9,1.4-1.3
	c0.2-0.2,0.4-0.3,0.6-0.5c0.6-0.5,1.1-0.9,1.7-1.4c0,0,0.1-0.1,0.1-0.1c0.4-0.3,0.7-0.5,1.1-0.8c0.5-0.4,0.9-0.8,1.5-1.1
	c0.5-0.3,1-0.5,1.6-0.8c1.3-0.6,2.6-1.2,3.8-1.9c0.7-0.3,1.4-0.5,2.1-0.8c0.5-0.2,1.1-0.3,1.6-0.5c0,0,0.1,0,0.1,0
	c0.7-0.2,1.3-0.4,2-0.5c0.7-0.1,1.4-0.3,2.1-0.4C35,16.4,35.7,16.3,36.4,16.2z M56.1,72.8C56.2,72.8,56.2,72.8,56.1,72.8
	c0.6-0.6,1.2-1.2,1.7-1.7c0.2-0.2,0.3-0.5,0.5-0.7c0.3-0.5,0.6-1,0.9-1.4c0.3-0.7,0.6-1.4,1-2.1c0-0.1,0.1-0.3,0.1-0.4
	c0.2-0.5,0.3-1,0.5-1.5c0.2-0.7,0.4-1.3,0.5-2c0.1-0.7,0.3-1.3,0.4-2c0.1-0.6,0.2-1.1,0.3-1.7c0.2-0.8,0.4-1.6,0.1-2.4
	C61.4,57,60.7,57,60,57.1c-0.6,0.1-1.2,0.3-1.8,0.4c-0.7,0.2-1.3,0.4-2,0.5c-0.9,0.3-1.8,0.6-2.6,0.9c-0.5,0.2-1,0.4-1.4,0.7
	c-0.8,0.4-1.7,0.8-2.4,1.3c-0.7,0.5-1.4,1.2-2.1,1.9c-1.2,1.1-2.1,2.5-2.4,4.1c-0.1,0.9-0.2,1.8-0.3,2.8c0.1,0.4,0.1,0.8,0.2,1.2
	c0.1,0.3,0.2,0.6,0.3,0.9c0.2,0.7,0.3,0.7,0.8,0.1c0.4-0.4,0.8-0.7,1.2-1.1c0.3-0.2,0.5-0.5,0.8-0.7c0.4-0.4,0.8-0.7,1.2-1.1
	c0.2-0.1,0.3-0.3,0.5-0.4c0.1-0.1,0.2-0.1,0.2-0.2l0,0c0.6-0.5,1.1-1,1.7-1.6c0.1-0.1,0.2-0.2,0.3-0.3c0.6-0.5,1.2-1.1,1.8-1.6
	c0,0,0.1,0,0.1,0c0.6-0.6,1.3-1.2,1.9-1.8c0,0,0.1,0,0.1-0.1c0.3-0.3,0.6-0.5,1-0.8c0,0,0.1,0.1,0.1,0.1c-0.1,0.1-0.2,0.3-0.3,0.4
	c-0.3,0.3-0.5,0.7-0.8,1c-0.3,0.3-0.5,0.6-0.8,0.9l0,0c-0.1,0.1-0.1,0.1-0.2,0.2c-0.5,0.7-1.1,1.3-1.6,2c-1.1,1.3-2.2,2.6-3.3,3.9
	c-0.6,0.7-1.2,1.4-1.7,2.1c-0.1,0.1-0.2,0.2-0.3,0.4c-0.2,0.2-0.4,0.3-0.5,0.6c-0.2,0.2-0.2,0.5-0.4,0.7c0.3,0.1,0.5,0.2,0.8,0.3
	c0.4,0.1,0.7,0.2,1.1,0.2c1,0,2-0.1,3-0.1c0.6-0.2,1.2-0.5,1.9-0.7c0.6-0.4,1.3-0.8,1.9-1.2C56,72.9,56.1,72.8,56.1,72.8z
	 M34.4,72.2c0.2,0.3,0.4,0.3,0.5,0c0.2-0.4,0.3-0.8,0.4-1.2c0.1-0.4,0.1-0.8,0.2-1.2c-0.1-1-0.2-2-0.3-2.9c-0.2-0.6-0.4-1.1-0.7-1.7
	c0,0-0.1-0.1-0.1-0.1c-0.5-0.7-1-1.3-1.5-2c-1.2-1.5-2.8-2.5-4.5-3.3c-1.3-0.5-2.7-1-4-1.6c-0.7-0.2-1.3-0.4-2-0.5
	c-0.7-0.1-1.3-0.3-2-0.4C19.7,57,19,57,18.2,56.9c0,0.4-0.1,0.8,0,1.1c0.2,1.1,0.3,2.3,0.5,3.4c0.1,0.5,0.2,1,0.3,1.4
	c0.2,0.8,0.4,1.5,0.6,2.3c0.5,1.3,1.1,2.5,1.6,3.8c0.4,0.7,0.8,1.3,1.2,2c0.1,0.1,0.2,0.1,0.2,0.2c0.9,1.4,2.2,2.4,3.7,3.1
	c0.7,0.2,1.4,0.4,2.1,0.7c0.2,0,0.4,0.1,0.6,0.1c1.1-0.1,2.2-0.2,3.3-0.2c0.2-0.1,0.5-0.2,0.7-0.3c-0.1-0.2-0.2-0.5-0.3-0.7
	c-0.1-0.2-0.3-0.3-0.4-0.4c-0.2-0.2-0.3-0.4-0.5-0.6c-0.5-0.6-1-1.2-1.5-1.8c-0.1-0.1-0.1-0.1-0.2-0.2c-0.5-0.7-1.1-1.3-1.6-2
	c0,0-0.1-0.1-0.1-0.1c-0.7-0.8-1.3-1.6-2-2.4c-1-1.1-1.9-2.3-2.9-3.4c-0.1-0.1-0.2-0.2-0.2-0.3c0,0,0.1-0.1,0.1-0.1
	c0.2,0.2,0.4,0.3,0.6,0.5c0.8,0.7,1.6,1.4,2.4,2c0.7,0.6,1.3,1.2,2,1.8c0.1,0.1,0.2,0.2,0.3,0.3c0.5,0.5,1,1,1.6,1.4
	c0.2,0.1,0.3,0.3,0.5,0.4c0.5,0.4,1,0.9,1.5,1.3c0.3,0.3,0.5,0.5,0.8,0.8C33.5,71.4,33.9,71.8,34.4,72.2z M40.3,23.9
	c-0.1,0.1-0.3,0.1-0.4,0.2c-0.3,0.3-0.5,0.7-0.8,1.1c-0.5,0.7-1,1.4-1.4,2.1c-0.4,0.6-0.8,1.2-1.2,1.8c-0.1,0.1-0.2,0.3-0.3,0.4
	c-0.3,0.6-0.6,1.1-1,1.7c-0.7,1.3-1.4,2.7-2.1,4c-0.5,1.2-1,2.5-1.5,3.7c-0.2,0.7-0.4,1.4-0.7,2.1c-0.2,0.7-0.4,1.5-0.5,2.2
	c-0.1,0.5-0.2,1-0.2,1.5c0,0.6-0.1,1.2-0.1,1.8c0.2,1.5,0.4,3,0.5,4.5c0.2,0.6,0.5,1.2,0.7,1.9c0.3,0.5,0.6,1,0.9,1.6
	c0.1,0.2,0.3,0.4,0.4,0.5c0.5,0.6,1,1.2,1.6,1.7c0.1,0.1,0.3,0.3,0.4,0.4c0.6,0.4,1.1,0.8,1.7,1.3c0.6,0.3,1.3,0.7,1.9,1
	c0.7,0.3,0.7,0.3,0.7-0.5c0-0.7,0.1-1.3,0.1-2c0-1,0.1-1.9,0.1-2.9c0-0.4,0-0.7,0-1.1c0-0.7,0.1-1.3,0.1-2c0-0.4,0-0.8,0-1.2
	c0-0.5,0.1-1.1,0.1-1.6c0.1-1.1,0.1-2.3,0.2-3.4c0-0.6,0.1-1.2,0.1-1.7c0-0.3,0-0.5,0-0.8c0.1-0.8,0.1-1.5,0.2-2.3
	c0-0.2,0.2-0.3,0.3-0.5c0.1,0.6,0.2,1.2,0.3,1.9c0,0.9,0.1,1.9,0.1,2.8c0,0.2,0,0.4,0,0.6c0,0.8,0.1,1.5,0.1,2.3
	c0,1,0.1,1.9,0.1,2.9c0,0.5,0.1,1,0.1,1.5c0,0.5,0,1,0,1.6c0,0.7,0.1,1.3,0.1,2c0,0.8,0.1,1.6,0.1,2.4c0,0.7,0.1,1.4,0.1,2.1
	c0,0,0.1,0.1,0.1,0.1c1-0.5,1.9-1,2.8-1.5c0.5-0.4,1-0.7,1.5-1.1c0.2-0.2,0.3-0.3,0.5-0.5c0.4-0.5,0.8-0.9,1.2-1.4
	c0.4-0.7,0.8-1.3,1.2-2c0.3-0.7,0.5-1.5,0.8-2.2c0.1-0.6,0.3-1.2,0.4-1.7c0.1-0.4,0.1-0.9,0.2-1.3c0-1.1-0.1-2.1-0.1-3.2
	c-0.1-0.6-0.2-1.1-0.3-1.7c-0.1-0.5-0.3-1.1-0.4-1.6c-0.2-0.8-0.5-1.6-0.7-2.4c-0.3-0.7-0.5-1.3-0.8-2c-0.3-0.6-0.5-1.2-0.8-1.9
	c-0.3-0.6-0.5-1.1-0.8-1.7c0,0-0.1-0.1-0.1-0.1c-0.4-0.8-0.8-1.6-1.2-2.4c-0.2-0.4-0.4-0.7-0.6-1.1c-0.1-0.2-0.3-0.4-0.4-0.7
	c-0.9-1.3-1.7-2.6-2.6-3.9C41.1,24.9,40.7,24.4,40.3,23.9z M40.3,62c-0.4,0-0.9,0-1.3,0c0,0.1-0.1,0.1-0.1,0.2c0,1.1,0,2.1,0,3.2
	c0,0.5,0,1,0,1.4c0,0.4,0,0.7,0,1.1c0,0.8,0,1.6,0,2.4c0,0.1-0.1,0.2-0.1,0.2c0,2.1,0,4.2,0,6.3c0,1.3,0,2.6,0,3.9c1,0,1.9,0,2.9,0
	c0-0.2,0.1-0.4,0.1-0.5c0-1.2,0-2.4,0-3.5c0-0.4-0.1-0.7-0.1-1.1c0-0.3,0-0.5,0-0.8c0-0.7,0-1.3,0-2c0-0.7,0-1.3,0-2
	c0-1.1,0-2.1,0-3.2c0-0.9-0.1-1.8-0.1-2.7c0-0.7,0-1.4,0-2.1c0-0.3,0-0.6,0-0.9C41.1,62,40.7,62,40.3,62z"/>
</svg>
